ggplot2绘制圆形热图
…
accidents <- read.csv("accidents.txt") %>%
  mutate(Year=as.numeric(Year)) %>%
  as_tibble()

*accidents
```
]
 
.panel2-walrus-auto[

```
  # A tibble: 156 x 3
      Year Deaths Month
     <dbl>  <int> <int>
   1  2007    126     1
   2  2007    105     2
   3  2007    133     3
   4  2007    137     4
   5  2007    128     5
   6  2007    108     6
   7  2007    170     7
   8  2007    143     8
   9  2007    146     9
  10  2007    145    10
  # ... with 146 more rows
```
…
accidents <- read.csv("accidents.txt") %>%
  mutate(Year=as.numeric(Year)) %>%
  as_tibble()

accidents
```
]
 
.panel2-walrus-auto[

```
  # A tibble: 156 x 3
      Year Deaths Month
     <dbl>  <int> <int>
   1  2007    126     1
   2  2007    105     2
   3  2007    133     3
   4  2007    137     4
   5  2007    128     5
   6  2007    108     6
   7  2007    170     7
   8  2007    143     8
   9  2007    146     9
  10  2007    145    10
  # ... with 146 more rows
```
…
